[
    {
        "name": "liiii",
        "party_type": "producer",
        "password": "pppp"
    },
    {
        "name": "kkkki",
        "party_type": "producer",
        "password": "liiiiioooo"
    },
    {
        "name": "subodh shah",
        "party_type": "producer",
        "password": "kkk"
    }
]